%YAML 1.1
%TAG !u! tag:unity3d.com,2011:
--- !u!114 &11400000
MonoBehaviour:
  m_ObjectHideFlags: 0
  m_CorrespondingSourceObject: {fileID: 0}
  m_PrefabInstance: {fileID: 0}
  m_PrefabAsset: {fileID: 0}
  m_GameObject: {fileID: 0}
  m_Enabled: 1
  m_EditorHideFlags: 0
  m_Script: {fileID: 11500000, guid: 644563c02be002a4bbb18f631ccb8db4, type: 3}
  m_Name: Altar1
  m_EditorClassIdentifier: 
  randomDistance: 1
  spawnObjects:
  - spawnObject: {fileID: 1142622651367148098, guid: 83e0e321575015b47a272a90cdf85c97,
      type: 3}
    spawnEffect: {fileID: 5601765830044175452, guid: 388491e081a69f546ad71c1ac20e895b,
      type: 3}
    quantities: 0100000001000000010000000300000004000000
  - spawnObject: {fileID: 1142622651367148098, guid: 55ab343353013634492547b81c33d13e,
      type: 3}
    spawnEffect: {fileID: 5601765830044175452, guid: 6e151192ba0e0564a90d196d43ba16e5,
      type: 3}
    quantities: 0000000000000000010000000200000002000000
  - spawnObject: {fileID: 1142622651367148098, guid: f6b5c8509c0ef264eb7164c7207cc53a,
      type: 3}
    spawnEffect: {fileID: 5601765830044175452, guid: 6e151192ba0e0564a90d196d43ba16e5,
      type: 3}
    quantities: 0000000000000000000000000100000002000000
