%YAML 1.1
%TAG !u! tag:unity3d.com,2011:
--- !u!78 &1
TagManager:
  serializedVersion: 2
  tags:
  - Enemy
  layers:
  - Default
  - TransparentFX
  - Ignore Raycast
  - Systems
  - Water
  - UI
  - Player
  - PlayerWeapon
  - Enemy
  - EnemySensor
  - EnemyWeapon
  - Interactive
  - 
  - 
  - 
  - 
  - 
  - 
  - 
  - 
  - Layer 1
  - Layer 2
  - Layer 3
  - 
  - 
  - 
  - 
  - 
  - 
  - 
  - 
  - 
  m_SortingLayers:
  - name: Default
    uniqueID: 0
    locked: 0
  - name: Layer 1
    uniqueID: 2425651459
    locked: 0
  - name: Layer 2
    uniqueID: 4250941897
    locked: 0
  - name: Layer 3
    uniqueID: 4189426099
    locked: 0
